<svg xmlns="http://www.w3.org/2000/svg" width="46.924" height="46.056" viewBox="0 0 46.924 46.056">
  <g id="Group_92" data-name="Group 92" transform="translate(3602.492 3963.923)">
    <rect id="Rectangle_Copy_31" data-name="Rectangle Copy 31" width="10.428" height="7.369" rx="1" transform="translate(-3565.996 -3925.236)" fill="rgba(255,255,255,0.3)"/>
    <rect id="Rectangle_Copy_30" data-name="Rectangle Copy 30" width="10.428" height="7.369" rx="1" transform="translate(-3578.658 -3925.236)" fill="rgba(255,255,255,0.3)"/>
    <rect id="Rectangle_Copy_29" data-name="Rectangle Copy 29" width="10.428" height="7.369" rx="1" transform="translate(-3590.575 -3925.236)" fill="rgba(255,255,255,0.3)"/>
    <rect id="Rectangle_Copy_28" data-name="Rectangle Copy 28" width="10.428" height="7.369" rx="1" transform="translate(-3602.492 -3925.236)" fill="rgba(255,255,255,0.3)"/>
    <rect id="Rectangle_Copy_25" data-name="Rectangle Copy 25" width="10.428" height="7.369" rx="1" transform="translate(-3565.996 -3935.061)" fill="rgba(255,255,255,0.3)"/>
    <rect id="Rectangle_Copy_24" data-name="Rectangle Copy 24" width="10.428" height="7.369" rx="1" transform="translate(-3578.658 -3935.061)" fill="rgba(255,255,255,0.3)"/>
    <rect id="Rectangle_Copy_23" data-name="Rectangle Copy 23" width="10.428" height="7.369" rx="1" transform="translate(-3590.575 -3935.061)" fill="#c1c2ca"/>
    <rect id="Rectangle_Copy_22" data-name="Rectangle Copy 22" width="10.428" height="7.369" rx="1" transform="translate(-3602.492 -3935.061)" fill="rgba(255,255,255,0.3)"/>
    <rect id="Rectangle_Copy_19" data-name="Rectangle Copy 19" width="10.428" height="7.369" rx="1" transform="translate(-3565.996 -3944.272)" fill="rgba(255,255,255,0.3)"/>
    <rect id="Rectangle_Copy_18" data-name="Rectangle Copy 18" width="10.428" height="7.369" rx="1" transform="translate(-3578.658 -3944.272)" fill="#c1c2ca"/>
    <rect id="Rectangle_Copy_17" data-name="Rectangle Copy 17" width="10.428" height="7.369" rx="1" transform="translate(-3590.575 -3944.272)" fill="rgba(255,255,255,0.3)"/>
    <rect id="Rectangle_Copy_16" data-name="Rectangle Copy 16" width="10.428" height="7.369" rx="1" transform="translate(-3602.492 -3944.272)" fill="rgba(255,255,255,0.3)"/>
    <rect id="Rectangle_Copy_13" data-name="Rectangle Copy 13" width="10.428" height="7.369" rx="1" transform="translate(-3565.996 -3954.098)" fill="#c1c2ca"/>
    <rect id="Rectangle_Copy_12" data-name="Rectangle Copy 12" width="10.428" height="7.369" rx="1" transform="translate(-3578.658 -3954.098)" fill="rgba(255,255,255,0.3)"/>
    <rect id="Rectangle_Copy_11" data-name="Rectangle Copy 11" width="10.428" height="7.369" rx="1" transform="translate(-3590.575 -3954.098)" fill="rgba(255,255,255,0.3)"/>
    <rect id="Rectangle_Copy_10" data-name="Rectangle Copy 10" width="10.428" height="7.369" rx="1" transform="translate(-3602.492 -3954.098)" fill="#c1c2ca"/>
    <rect id="Rectangle_Copy_7" data-name="Rectangle Copy 7" width="10.428" height="7.369" rx="1" transform="translate(-3565.996 -3963.923)" fill="#fff"/>
    <rect id="Rectangle_Copy_6" data-name="Rectangle Copy 6" width="10.428" height="7.369" rx="1" transform="translate(-3578.658 -3963.923)" fill="#fff"/>
    <rect id="Rectangle_Copy_5" data-name="Rectangle Copy 5" width="10.428" height="7.369" rx="1" transform="translate(-3590.575 -3963.923)" fill="#fff"/>
    <rect id="Rectangle_Copy_4" data-name="Rectangle Copy 4" width="10.428" height="7.369" rx="1" transform="translate(-3602.492 -3963.923)" fill="#fff"/>
  </g>
</svg>
